verilog xil_defaultlib --include "../../../../microzed-archlinux.srcs/sources_1/bd/block_design/ipshared/ec67/hdl" --include "../../../../microzed-archlinux.srcs/sources_1/bd/block_design/ipshared/6b56/hdl" \
"../../../bd/block_design/ip/block_design_processing_system7_0_0/sim/block_design_processing_system7_0_0.v" \
"../../../bd/block_design/sim/block_design.v" \

verilog xil_defaultlib "glbl.v"

nosort
