Copyright 1986-2020 Xilinx, Inc. All Rights Reserved.
---------------------------------------------------------------------------------------------------------------------------------------------------------------------------------------------
| Tool Version : Vivado v.2020.1 (lin64) Build 2902540 Wed May 27 19:54:35 MDT 2020
| Date         : Wed Oct 28 20:33:13 2020
| Host         : IRIS running 64-bit unknown
| Command      : report_bus_skew -warn_on_violation -file block_design_wrapper_bus_skew_routed.rpt -pb block_design_wrapper_bus_skew_routed.pb -rpx block_design_wrapper_bus_skew_routed.rpx
| Design       : block_design_wrapper
| Device       : 7z020-clg400
| Speed File   : -1  PRODUCTION 1.12 2019-11-22
---------------------------------------------------------------------------------------------------------------------------------------------------------------------------------------------

Bus Skew Report

No bus skew constraints

